{
  "project_info": {
    "project_number": "743243811697",
    "firebase_url": "https://disco-app-e4a18.firebaseio.com",
    "project_id": "disco-app-e4a18",
    "storage_bucket": "disco-app-e4a18.appspot.com"
  },
  "client": [
    {
      "client_info": {
        "mobilesdk_app_id": "1:743243811697:android:a55142f2e88079e5",
        "android_client_info": {
          "package_name": "com.fizzmod.geant.vtex.android"
        }
      },
      "oauth_client": [
        {
          "client_id": "743243811697-2lerm2pmg4ljujtqcpb3pgrhmsds0sdl.apps.googleusercontent.com",
          "client_type": 3
        }
      ],
      "api_key": [
        {
          "current_key": "AIzaSyAF_lBgmVPCHngLguVQyfVzJxc0w7qVPJg"
        }
      ],
      "services": {
        "appinvite_service": {
          "other_platform_oauth_client": [
            {
              "client_id": "743243811697-2lerm2pmg4ljujtqcpb3pgrhmsds0sdl.apps.googleusercontent.com",
              "client_type": 3
            },
            {
              "client_id": "743243811697-nup2nhd42kkmdka9nhdefqs6vc5oomei.apps.googleusercontent.com",
              "client_type": 2,
              "ios_info": {
                "bundle_id": "com.fizzmod.geant.vtex.ios"
              }
            }
          ]
        }
      }
    }
  ],
  "configuration_version": "1"
}