{
  "project_info": {
    "project_number": "1070701454053",
    "firebase_url": "https://fizzmod-11698.firebaseio.com",
    "project_id": "fizzmod-11698",
    "storage_bucket": "fizzmod-11698.appspot.com"
  },
  "client": [
    {
      "client_info": {
        "mobilesdk_app_id": "1:1070701454053:android:1bf92f0e61478134",
        "android_client_info": {
          "package_name": "com.fizzmod.vtex.fizzmod"
        }
      },
      "oauth_client": [
        {
          "client_id": "1070701454053-753r2ftosc0durr5n13d9t4h6e3kshsb.apps.googleusercontent.com",
          "client_type": 3
        }
      ],
      "api_key": [
        {
          "current_key": "AIzaSyARY2vwH27e15Dv79YbihpMLqx1UERkMJY"
        }
      ],
      "services": {
        "analytics_service": {
          "status": 1
        },
        "appinvite_service": {
          "status": 1,
          "other_platform_oauth_client": []
        },
        "ads_service": {
          "status": 2
        }
      }
    }
  ],
  "configuration_version": "1"
}
