{
	"states": [
		{
			"name": "Córdoba",
			"stores": [101, 102, 103, 104, 105],
			"latitude": -31.413499,
			"longitude": -64.1855487
		},
		{
			"name": "Mendoza",
			"stores": [106],
			"latitude": -32.9291023,
			"longitude": -68.8558589
		},
		{
			"name": "Tucumán",
			"stores": [107, 108],
			"latitude": -26.8350452,
			"longitude": -65.2550367
		},
		{
			"name": "Misiones",
			"stores": [109],
			"latitude": -27.4018492,
			"longitude": -55.9193617
		},
		{
			"name": "Chaco",
			"stores": [110],
			"latitude": -27.412631,
			"longitude": -58.9696836
		},
		{
			"name": "Santa Fé",
			"stores": [111, 112],
			"latitude": -32.0075119,
			"longitude": -62.5084015
		},
		{
			"name": "Santiago del Estero",
			"stores": [113],
			"latitude": -27.7671807,
			"longitude": -64.2542845
		},
		{
			"name": "San Juan",
			"stores": [114],
			"latitude": -31.5203611,
			"longitude": -68.5428456
		},
		{
			"name": "Salta",
			"stores": [115],
			"latitude": -24.8315963,
			"longitude": -65.4308317
		}
	],
	"storeDefault": "101",
	"stores": [
		{
			"ecommerce": true,
			"id": 101,
			"name": "CÓRDOBA - Hipermercado Lugones",
			"sc": 1,
			"ZIP": "5008",
			"state": "Córdoba",
			"city": "Córdoba",
			"address": "Av. Manuel Cardeñosa y Fray Luis Beltrán",
			"phone": "(0351) 4747251",
			"timetable": "Todos los días de 8 a 21 hs.",
			"opening": "",
			"latitude": -31.364457,
			"longitude": -64.216042,
			"services": [],
			"zipCodes": [],
			"nearby": [],
			"areas": [],
			"polygons": []
		},
		{
			"ecommerce": true,
			"id": 102,
			"name": "CÓRDOBA - Hipermercado Rivera",
			"sc": 2,
			"ZIP": "5018",
			"state": "Córdoba",
			"city": "Córdoba",
			"address": "Av. Ricardo Rojas y Manuel de Falla",
			"phone": "(03543) 402500",
			"timetable": "Todos los días de 8 a 21 hs.",
			"opening": "",
			"latitude": -31.334431,
			"longitude": -64.290232,
			"services": [],
			"zipCodes": [],
			"nearby": [],
			"areas": [],
			"polygons": []
		},
		{
			"ecommerce": true,
			"id": 103,
			"name": "CÓRDOBA - Hipermercado Jacinto Rios",
			"sc": 3,
			"ZIP": "5000",
			"state": "Córdoba",
			"city": "Córdoba",
			"address": "Libertad 1100 – Barrio General Paz",
			"phone": "(0351) 4298200",
			"timetable": "Todos los días de 8 a 21 hs.",
			"opening": "",
			"latitude": -31.409124,
			"longitude": -64.170849,
			"services": [],
			"zipCodes": [],
			"nearby": [],
			"areas": [],
			"polygons": []
		},
		{
			"ecommerce": true,
			"id": 104,
			"name": "CÓRDOBA - Hipermercado Ruta 9",
			"sc": 4,
			"ZIP": "5000",
			"state": "Córdoba",
			"city": "Córdoba",
			"address": "Av. Sabattini 3250",
			"phone": "(0351) 4586884 / 76",
			"timetable": "Todos los días de 8 a 21 hs.",
			"opening": "",
			"latitude": -31.434182,
			"longitude": -64.143219,
			"services": [],
			"zipCodes": [],
			"nearby": [],
			"areas": [],
			"polygons": []
		},
		{
			"ecommerce": true,
			"id": 105,
			"name": "CÓRDOBA - Hipermercado Villa Maria",
			"sc": 5,
			"ZIP": "5900",
			"state": "Córdoba",
			"city": "Córdoba",
			"address": "Ruta 158, Km. 155,5",
			"phone": "(0353) 4539400",
			"timetable": "Todos los días de 8 a 21 hs.",
			"opening": "",
			"latitude": -32.387301,
			"longitude": -63.241961,
			"services": [],
			"zipCodes": [],
			"nearby": [],
			"areas": [],
			"polygons": []
		},
		{
			"ecommerce": true,
			"id": 106,
			"name": "MENDOZA - Hipermercado Godoy Cruz",
			"sc": 6,
			"ZIP": "5501",
			"state": "Mendoza",
			"city": "Godoy Cruz",
			"address": "Joaquín V. González 450",
			"phone": "(0261) 5217200",
			"timetable": "Todos los días de 9 a 19 hs.",
			"opening": "",
			"latitude": -32.9291023,
			"longitude": -68.8558589,
			"services": [],
			"zipCodes": [],
			"nearby": [],
			"areas": [],
			"polygons": []
		},
		{
			"ecommerce": true,
			"id": 107,
			"name": "TUCUMÁN - Hipermercado Tucumán 1",
			"sc": 8,
			"ZIP": "4000",
			"state": "Tucumán",
			"city": "San Miguel de Tucumán",
			"address": "Av. Roca 3440",
			"phone": "(0381) 4503500",
			"timetable": "Lunes a domingos y feriados de 9 hs. a 20 hs.",
			"opening": "",
			"latitude": -26.8350452,
			"longitude": -65.2550367,
			"services": [],
			"zipCodes": [],
			"nearby": [],
			"areas": [],
			"polygons": []
		},
		{
			"ecommerce": true,
			"id": 108,
			"name": "TUCUMÁN - Hipermercado Tucumán 2",
			"sc": 9,
			"ZIP": "4000",
			"state": "Tucumán",
			"city": "San Miguel de Tucumán",
			"address": "Emilio Castelar y Suipacha",
			"phone": "(0381) 4504000",
			"timetable": "Lunes a domingos y feriados de 9 hs. a 20 hs.",
			"opening": "",
			"latitude": -26.8076125,
			"longitude": -65.2411929,
			"services": [],
			"zipCodes": [],
			"nearby": [],
			"areas": [],
			"polygons": []
		},
		{
			"ecommerce": true,
			"id": 109,
			"name": "MISIONES - Hipermercado Posadas",
			"sc": 7,
			"ZIP": "3300",
			"state": "Misiones",
			"city": "Posadas",
			"address": "Av. Quaranta y Tomas Guido",
			"phone": "(0376) 4446300",
			"timetable": "Lunes a domingos y feriados de 9 hs. a 20 hs.",
			"opening": "",
			"latitude": -27.4018492,
			"longitude": -55.9193617,
			"services": [],
			"zipCodes": [],
			"nearby": [],
			"areas": [],
			"polygons": []
		},
		{
			"ecommerce": true,
			"id": 110,
			"name": "CHACO - Hipermercado Chaco",
			"sc": 10,
			"ZIP": "3500",
			"state": "Chaco",
			"city": "Resistencia",
			"address": "Dr. Sabin y Avellaneda",
			"phone": "(0362) 4458490",
			"timetable": "Todos los días de 8 a 20 hs.",
			"opening": "",
			"latitude": -27.412631,
			"longitude": -58.9696836,
			"services": [],
			"zipCodes": [],
			"nearby": [],
			"areas": [],
			"polygons": []
		},
		{
			"ecommerce": true,
			"id": 111,
			"name": "SANTA FE - Hipermercado Rosario",
			"sc": 11,
			"ZIP": "2000",
			"state": "Santa Fé",
			"city": "Rosario",
			"address": "Bv. Oroño 6000",
			"phone": "(0341) 4628700",
			"timetable": "Todos los días de 8 a 19:30 hs.",
			"opening": "",
			"latitude": -33.0075119,
			"longitude": -62.9084015,
			"services": [],
			"zipCodes": [],
			"nearby": [],
			"areas": [],
			"polygons": []
		},
		{
			"ecommerce": true,
			"id": 112,
			"name": "SANTA FE - Hipermercado Rafaela",
			"sc": 15,
			"ZIP": "2300",
			"state": "Santa Fé",
			"city": "Rafaela",
			"address": "Conscripto Surbriggen 865",
			"phone": "(03492) 458400",
			"timetable": "Todos los días de 8 a 19 hs.",
			"opening": "",
			"latitude": -31.2418949,
			"longitude": -61.5088453,
			"services": [],
			"zipCodes": [],
			"nearby": [],
			"areas": [],
			"polygons": []
		},
		{
			"ecommerce": true,
			"id": 113,
			"name": "SGO. DEL ESTERO - Hipermercado Sgo. Del Estero",
			"sc": 12,
			"ZIP": "4300",
			"state": "Santiago del Estero",
			"city": "Santiago del Estero",
			"address": "Aut. Juan D. Perón s/n",
			"phone": "(0385) 4509636",
			"timetable": "Todos los días de 8 a 20 hs.",
			"opening": "",
			"latitude": -27.7671807,
			"longitude": -64.2542845,
			"services": [],
			"zipCodes": [],
			"nearby": [],
			"areas": [],
			"polygons": []
		},
		{
			"ecommerce": true,
			"id": 114,
			"name": "SAN JUAN - Hipermercado San Juan",
			"sc": 13,
			"ZIP": "5400",
			"state": "San Juan",
			"city": "San Juan",
			"address": "Scalabrini Ortiz 1285 y Av. Circunvalación",
			"phone": "(0264) 4292207",
			"timetable": "Lunes a domingos y feriados 9 a 21 hs.",
			"opening": "",
			"latitude": -31.5203611,
			"longitude": -68.5428456,
			"services": [],
			"zipCodes": [],
			"nearby": [],
			"areas": [],
			"polygons": []
		},
		{
			"ecommerce": true,
			"id": 115,
			"name": "SALTA - Hipermercado Salta",
			"sc": 14,
			"ZIP": "4400",
			"state": "Salta",
			"city": "Salta",
			"address": "Av. Ex Comb. Malvinas esq. Av. Tavella",
			"phone": "(0264) 4292207",
			"timetable": "Lunes a domingos y feriados 9 a 20 hs.",
			"opening": "",
			"latitude": -24.8315963,
			"longitude": -65.4308317,
			"services": [],
			"zipCodes": [],
			"nearby": [],
			"areas": [],
			"polygons": []
		}
	]
}
