{
  "project_info": {
    "project_number": "316759838273",
    "firebase_url": "https://grupo-axo.firebaseio.com",
    "project_id": "grupo-axo",
    "storage_bucket": "grupo-axo.appspot.com"
  },
  "client": [
    {
      "client_info": {
        "mobilesdk_app_id": "1:316759838273:android:c4a4ec0e0d80581673c0c0",
        "android_client_info": {
          "package_name": "com.fizzmod.taf.vtex.android"
        }
      },
      "oauth_client": [
        {
          "client_id": "316759838273-6cn6015393govu19kuo9ai14rma51sb1.apps.googleusercontent.com",
          "client_type": 1,
          "android_info": {
            "package_name": "com.fizzmod.taf.vtex.android",
            "certificate_hash": "1e21f35536fe3c42a6baebca32c10b62b98da52c"
          }
        },
        {
          "client_id": "316759838273-lvjme2m1obaugm6o93lrh94u9hrbs5uc.apps.googleusercontent.com",
          "client_type": 1,
          "android_info": {
            "package_name": "com.fizzmod.taf.vtex.android",
            "certificate_hash": "b131266df53967ebbf8daf49fb6022b92902047e"
          }
        },
        {
          "client_id": "316759838273-otlp0374iheg0kr3dahn7rdapsc8udd1.apps.googleusercontent.com",
          "client_type": 3
        }
      ],
      "api_key": [
        {
          "current_key": "AIzaSyAKX5wxrlEG-d-KReuEbSmvomO8-qam898"
        }
      ],
      "services": {
        "appinvite_service": {
          "other_platform_oauth_client": [
            {
              "client_id": "316759838273-otlp0374iheg0kr3dahn7rdapsc8udd1.apps.googleusercontent.com",
              "client_type": 3
            },
            {
              "client_id": "316759838273-lma1qa3puki05t8jv1r4j9ttofqp4ujv.apps.googleusercontent.com",
              "client_type": 2,
              "ios_info": {
                "bundle_id": "com.taf.ios.com"
              }
            }
          ]
        }
      }
    }
  ],
  "configuration_version": "1"
}